info face="Consolas" size=32 bold=0 italic=0 charset="" unicode=0 stretchH=100 smooth=1 aa=1 padding=1,1,1,1 spacing=-2,-2
common lineHeight=38 base=27 scaleW=256 scaleH=256 pages=1 packed=0
page id=0 file="consolas32.png"
chars count=96
char id=10      x=0    y=0    width=0    height=0    xoffset=0    yoffset=0    xadvance=0    page=0    chnl=0 
char id=32      x=0    y=0    width=0    height=0    xoffset=-1   yoffset=23   xadvance=18   page=0    chnl=0 
char id=33      x=242  y=0    width=6    height=24   xoffset=6    yoffset=1    xadvance=18   page=0    chnl=0 
char id=34      x=90   y=124  width=11   height=9    xoffset=3    yoffset=1    xadvance=18   page=0    chnl=0 
char id=35      x=17   y=102  width=18   height=22   xoffset=0    yoffset=3    xadvance=18   page=0    chnl=0 
char id=36      x=110  y=0    width=16   height=30   xoffset=1    yoffset=-1   xadvance=18   page=0    chnl=0 
char id=37      x=150  y=34   width=21   height=24   xoffset=-1   yoffset=1    xadvance=18   page=0    chnl=0 
char id=38      x=171  y=34   width=19   height=24   xoffset=0    yoffset=1    xadvance=18   page=0    chnl=0 
char id=39      x=248  y=0    width=5    height=9    xoffset=6    yoffset=1    xadvance=18   page=0    chnl=0 
char id=40      x=5    y=0    width=11   height=33   xoffset=4    yoffset=-1   xadvance=18   page=0    chnl=0 
char id=41      x=16   y=0    width=12   height=33   xoffset=2    yoffset=-1   xadvance=18   page=0    chnl=0 
char id=42      x=32   y=124  width=16   height=15   xoffset=1    yoffset=1    xadvance=18   page=0    chnl=0 
char id=43      x=15   y=124  width=17   height=17   xoffset=0    yoffset=7    xadvance=18   page=0    chnl=0 
char id=44      x=48   y=124  width=10   height=13   xoffset=3    yoffset=17   xadvance=18   page=0    chnl=0 
char id=45      x=139  y=124  width=11   height=5    xoffset=3    yoffset=13   xadvance=18   page=0    chnl=0 
char id=46      x=132  y=124  width=7    height=7    xoffset=5    yoffset=18   xadvance=18   page=0    chnl=0 
char id=47      x=145  y=0    width=17   height=28   xoffset=0    yoffset=1    xadvance=18   page=0    chnl=0 
char id=48      x=0    y=102  width=17   height=22   xoffset=0    yoffset=3    xadvance=18   page=0    chnl=0 
char id=49      x=96   y=80   width=16   height=22   xoffset=1    yoffset=3    xadvance=18   page=0    chnl=0 
char id=50      x=112  y=80   width=15   height=22   xoffset=1    yoffset=3    xadvance=18   page=0    chnl=0 
char id=51      x=127  y=80   width=15   height=22   xoffset=2    yoffset=3    xadvance=18   page=0    chnl=0 
char id=52      x=142  y=80   width=18   height=22   xoffset=0    yoffset=3    xadvance=18   page=0    chnl=0 
char id=53      x=160  y=80   width=15   height=22   xoffset=1    yoffset=3    xadvance=18   page=0    chnl=0 
char id=54      x=175  y=80   width=16   height=22   xoffset=1    yoffset=3    xadvance=18   page=0    chnl=0 
char id=55      x=191  y=80   width=16   height=22   xoffset=1    yoffset=3    xadvance=18   page=0    chnl=0 
char id=56      x=207  y=80   width=16   height=22   xoffset=1    yoffset=3    xadvance=18   page=0    chnl=0 
char id=57      x=223  y=80   width=16   height=22   xoffset=1    yoffset=3    xadvance=18   page=0    chnl=0 
char id=58      x=244  y=102  width=7    height=18   xoffset=5    yoffset=7    xadvance=18   page=0    chnl=0 
char id=59      x=140  y=34   width=10   height=24   xoffset=2    yoffset=7    xadvance=18   page=0    chnl=0 
char id=60      x=239  y=80   width=15   height=21   xoffset=1    yoffset=5    xadvance=18   page=0    chnl=0 
char id=61      x=75   y=124  width=15   height=10   xoffset=1    yoffset=10   xadvance=18   page=0    chnl=0 
char id=62      x=35   y=102  width=15   height=21   xoffset=2    yoffset=5    xadvance=18   page=0    chnl=0 
char id=63      x=128  y=34   width=12   height=24   xoffset=4    yoffset=1    xadvance=18   page=0    chnl=0 
char id=64      x=90   y=0    width=20   height=30   xoffset=0    yoffset=1    xadvance=18   page=0    chnl=0 
char id=65      x=190  y=34   width=20   height=22   xoffset=-1   yoffset=3    xadvance=18   page=0    chnl=0 
char id=66      x=210  y=34   width=15   height=22   xoffset=1    yoffset=3    xadvance=18   page=0    chnl=0 
char id=67      x=225  y=34   width=16   height=22   xoffset=0    yoffset=3    xadvance=18   page=0    chnl=0 
char id=68      x=0    y=58   width=17   height=22   xoffset=1    yoffset=3    xadvance=18   page=0    chnl=0 
char id=69      x=241  y=34   width=14   height=22   xoffset=2    yoffset=3    xadvance=18   page=0    chnl=0 
char id=70      x=17   y=58   width=14   height=22   xoffset=2    yoffset=3    xadvance=18   page=0    chnl=0 
char id=71      x=31   y=58   width=17   height=22   xoffset=0    yoffset=3    xadvance=18   page=0    chnl=0 
char id=72      x=48   y=58   width=16   height=22   xoffset=1    yoffset=3    xadvance=18   page=0    chnl=0 
char id=73      x=64   y=58   width=14   height=22   xoffset=2    yoffset=3    xadvance=18   page=0    chnl=0 
char id=74      x=78   y=58   width=13   height=22   xoffset=2    yoffset=3    xadvance=18   page=0    chnl=0 
char id=75      x=91   y=58   width=16   height=22   xoffset=1    yoffset=3    xadvance=18   page=0    chnl=0 
char id=76      x=107  y=58   width=14   height=22   xoffset=3    yoffset=3    xadvance=18   page=0    chnl=0 
char id=77      x=121  y=58   width=17   height=22   xoffset=0    yoffset=3    xadvance=18   page=0    chnl=0 
char id=78      x=138  y=58   width=16   height=22   xoffset=1    yoffset=3    xadvance=18   page=0    chnl=0 
char id=79      x=154  y=58   width=18   height=22   xoffset=0    yoffset=3    xadvance=18   page=0    chnl=0 
char id=80      x=172  y=58   width=15   height=22   xoffset=1    yoffset=3    xadvance=18   page=0    chnl=0 
char id=81      x=126  y=0    width=19   height=28   xoffset=0    yoffset=3    xadvance=18   page=0    chnl=0 
char id=82      x=187  y=58   width=16   height=22   xoffset=2    yoffset=3    xadvance=18   page=0    chnl=0 
char id=83      x=203  y=58   width=16   height=22   xoffset=1    yoffset=3    xadvance=18   page=0    chnl=0 
char id=84      x=219  y=58   width=17   height=22   xoffset=0    yoffset=3    xadvance=18   page=0    chnl=0 
char id=85      x=236  y=58   width=16   height=22   xoffset=1    yoffset=3    xadvance=18   page=0    chnl=0 
char id=86      x=0    y=80   width=20   height=22   xoffset=-1   yoffset=3    xadvance=18   page=0    chnl=0 
char id=87      x=20   y=80   width=19   height=22   xoffset=-1   yoffset=3    xadvance=18   page=0    chnl=0 
char id=88      x=39   y=80   width=20   height=22   xoffset=-1   yoffset=3    xadvance=18   page=0    chnl=0 
char id=89      x=59   y=80   width=21   height=22   xoffset=-2   yoffset=3    xadvance=18   page=0    chnl=0 
char id=90      x=80   y=80   width=16   height=22   xoffset=1    yoffset=3    xadvance=18   page=0    chnl=0 
char id=91      x=28   y=0    width=10   height=32   xoffset=4    yoffset=-1   xadvance=18   page=0    chnl=0 
char id=92      x=162  y=0    width=16   height=28   xoffset=1    yoffset=1    xadvance=18   page=0    chnl=0 
char id=93      x=38   y=0    width=10   height=32   xoffset=3    yoffset=-1   xadvance=18   page=0    chnl=0 
char id=94      x=58   y=124  width=17   height=12   xoffset=0    yoffset=3    xadvance=18   page=0    chnl=0 
char id=95      x=150  y=124  width=20   height=5    xoffset=-1   yoffset=26   xadvance=18   page=0    chnl=0 
char id=96      x=101  y=124  width=13   height=9    xoffset=-1   yoffset=1    xadvance=18   page=0    chnl=0 
char id=97      x=50   y=102  width=15   height=18   xoffset=1    yoffset=7    xadvance=18   page=0    chnl=0 
char id=98      x=193  y=0    width=16   height=24   xoffset=1    yoffset=1    xadvance=18   page=0    chnl=0 
char id=99      x=65   y=102  width=14   height=18   xoffset=1    yoffset=7    xadvance=18   page=0    chnl=0 
char id=100     x=209  y=0    width=15   height=24   xoffset=1    yoffset=1    xadvance=18   page=0    chnl=0 
char id=101     x=79   y=102  width=16   height=18   xoffset=1    yoffset=7    xadvance=18   page=0    chnl=0 
char id=102     x=224  y=0    width=18   height=24   xoffset=-1   yoffset=1    xadvance=18   page=0    chnl=0 
char id=103     x=0    y=34   width=17   height=24   xoffset=0    yoffset=7    xadvance=18   page=0    chnl=0 
char id=104     x=17   y=34   width=15   height=24   xoffset=1    yoffset=1    xadvance=18   page=0    chnl=0 
char id=105     x=32   y=34   width=15   height=24   xoffset=2    yoffset=1    xadvance=18   page=0    chnl=0 
char id=106     x=48   y=0    width=14   height=30   xoffset=1    yoffset=1    xadvance=18   page=0    chnl=0 
char id=107     x=47   y=34   width=16   height=24   xoffset=2    yoffset=1    xadvance=18   page=0    chnl=0 
char id=108     x=63   y=34   width=15   height=24   xoffset=2    yoffset=1    xadvance=18   page=0    chnl=0 
char id=109     x=95   y=102  width=17   height=18   xoffset=0    yoffset=7    xadvance=18   page=0    chnl=0 
char id=110     x=112  y=102  width=15   height=18   xoffset=1    yoffset=7    xadvance=18   page=0    chnl=0 
char id=111     x=127  y=102  width=17   height=18   xoffset=0    yoffset=7    xadvance=18   page=0    chnl=0 
char id=112     x=78   y=34   width=16   height=24   xoffset=1    yoffset=7    xadvance=18   page=0    chnl=0 
char id=113     x=178  y=0    width=15   height=25   xoffset=1    yoffset=6    xadvance=18   page=0    chnl=0 
char id=114     x=144  y=102  width=15   height=18   xoffset=2    yoffset=7    xadvance=18   page=0    chnl=0 
char id=115     x=159  y=102  width=14   height=18   xoffset=2    yoffset=7    xadvance=18   page=0    chnl=0 
char id=116     x=94   y=34   width=16   height=24   xoffset=0    yoffset=1    xadvance=18   page=0    chnl=0 
char id=117     x=173  y=102  width=15   height=18   xoffset=1    yoffset=7    xadvance=18   page=0    chnl=0 
char id=118     x=188  y=102  width=18   height=18   xoffset=0    yoffset=7    xadvance=18   page=0    chnl=0 
char id=119     x=206  y=102  width=20   height=18   xoffset=-1   yoffset=7    xadvance=18   page=0    chnl=0 
char id=120     x=226  y=102  width=18   height=18   xoffset=0    yoffset=7    xadvance=18   page=0    chnl=0 
char id=121     x=110  y=34   width=18   height=24   xoffset=0    yoffset=7    xadvance=18   page=0    chnl=0 
char id=122     x=0    y=124  width=15   height=18   xoffset=2    yoffset=7    xadvance=18   page=0    chnl=0 
char id=123     x=62   y=0    width=14   height=30   xoffset=1    yoffset=1    xadvance=18   page=0    chnl=0 
char id=124     x=0    y=0    width=5    height=34   xoffset=7    yoffset=-3   xadvance=18   page=0    chnl=0 
char id=125     x=76   y=0    width=14   height=30   xoffset=2    yoffset=1    xadvance=18   page=0    chnl=0 
char id=126     x=114  y=124  width=18   height=9    xoffset=0    yoffset=11   xadvance=18   page=0    chnl=0 
kernings count=0
