info face="Consolas" size=26 bold=0 italic=0 charset="" unicode=0 stretchH=100 smooth=1 aa=1 padding=1,1,1,1 spacing=-2,-2
common lineHeight=31 base=22 scaleW=256 scaleH=256 pages=1 packed=0
page id=0 file="consolas26.png"
chars count=96
char id=10      x=0    y=0    width=0    height=0    xoffset=0    yoffset=0    xadvance=0    page=0    chnl=0 
char id=32      x=0    y=0    width=0    height=0    xoffset=-1   yoffset=19   xadvance=14   page=0    chnl=0 
char id=33      x=246  y=0    width=5    height=20   xoffset=4    yoffset=1    xadvance=14   page=0    chnl=0 
char id=34      x=127  y=86   width=10   height=8    xoffset=2    yoffset=1    xadvance=14   page=0    chnl=0 
char id=35      x=109  y=67   width=15   height=19   xoffset=0    yoffset=2    xadvance=14   page=0    chnl=0 
char id=36      x=95   y=0    width=14   height=24   xoffset=0    yoffset=0    xadvance=14   page=0    chnl=0 
char id=37      x=86   y=28   width=17   height=20   xoffset=-1   yoffset=1    xadvance=14   page=0    chnl=0 
char id=38      x=103  y=28   width=16   height=20   xoffset=0    yoffset=1    xadvance=14   page=0    chnl=0 
char id=39      x=250  y=48   width=5    height=8    xoffset=5    yoffset=1    xadvance=14   page=0    chnl=0 
char id=40      x=5    y=0    width=10   height=27   xoffset=3    yoffset=0    xadvance=14   page=0    chnl=0 
char id=41      x=15   y=0    width=10   height=27   xoffset=2    yoffset=0    xadvance=14   page=0    chnl=0 
char id=42      x=99   y=86   width=14   height=13   xoffset=0    yoffset=1    xadvance=14   page=0    chnl=0 
char id=43      x=85   y=86   width=14   height=14   xoffset=0    yoffset=6    xadvance=14   page=0    chnl=0 
char id=44      x=244  y=67   width=8    height=11   xoffset=2    yoffset=14   xadvance=14   page=0    chnl=0 
char id=45      x=182  y=86   width=10   height=4    xoffset=2    yoffset=11   xadvance=14   page=0    chnl=0 
char id=46      x=176  y=86   width=6    height=6    xoffset=4    yoffset=15   xadvance=14   page=0    chnl=0 
char id=47      x=125  y=0    width=14   height=23   xoffset=0    yoffset=1    xadvance=14   page=0    chnl=0 
char id=48      x=95   y=67   width=14   height=19   xoffset=0    yoffset=2    xadvance=14   page=0    chnl=0 
char id=49      x=218  y=48   width=13   height=19   xoffset=0    yoffset=2    xadvance=14   page=0    chnl=0 
char id=50      x=231  y=48   width=13   height=19   xoffset=1    yoffset=2    xadvance=14   page=0    chnl=0 
char id=51      x=0    y=67   width=13   height=19   xoffset=1    yoffset=2    xadvance=14   page=0    chnl=0 
char id=52      x=13   y=67   width=15   height=19   xoffset=0    yoffset=2    xadvance=14   page=0    chnl=0 
char id=53      x=28   y=67   width=13   height=19   xoffset=1    yoffset=2    xadvance=14   page=0    chnl=0 
char id=54      x=41   y=67   width=14   height=19   xoffset=1    yoffset=2    xadvance=14   page=0    chnl=0 
char id=55      x=55   y=67   width=13   height=19   xoffset=0    yoffset=2    xadvance=14   page=0    chnl=0 
char id=56      x=68   y=67   width=13   height=19   xoffset=1    yoffset=2    xadvance=14   page=0    chnl=0 
char id=57      x=81   y=67   width=14   height=19   xoffset=0    yoffset=2    xadvance=14   page=0    chnl=0 
char id=58      x=244  y=48   width=6    height=15   xoffset=4    yoffset=6    xadvance=14   page=0    chnl=0 
char id=59      x=78   y=28   width=8    height=20   xoffset=2    yoffset=6    xadvance=14   page=0    chnl=0 
char id=60      x=124  y=67   width=13   height=18   xoffset=0    yoffset=4    xadvance=14   page=0    chnl=0 
char id=61      x=148  y=86   width=13   height=8    xoffset=1    yoffset=9    xadvance=14   page=0    chnl=0 
char id=62      x=137  y=67   width=13   height=18   xoffset=1    yoffset=4    xadvance=14   page=0    chnl=0 
char id=63      x=68   y=28   width=10   height=20   xoffset=2    yoffset=1    xadvance=14   page=0    chnl=0 
char id=64      x=78   y=0    width=17   height=25   xoffset=0    yoffset=1    xadvance=14   page=0    chnl=0 
char id=65      x=119  y=28   width=17   height=19   xoffset=-1   yoffset=2    xadvance=14   page=0    chnl=0 
char id=66      x=136  y=28   width=13   height=19   xoffset=1    yoffset=2    xadvance=14   page=0    chnl=0 
char id=67      x=149  y=28   width=14   height=19   xoffset=0    yoffset=2    xadvance=14   page=0    chnl=0 
char id=68      x=163  y=28   width=14   height=19   xoffset=0    yoffset=2    xadvance=14   page=0    chnl=0 
char id=69      x=177  y=28   width=12   height=19   xoffset=2    yoffset=2    xadvance=14   page=0    chnl=0 
char id=70      x=189  y=28   width=12   height=19   xoffset=2    yoffset=2    xadvance=14   page=0    chnl=0 
char id=71      x=201  y=28   width=14   height=19   xoffset=0    yoffset=2    xadvance=14   page=0    chnl=0 
char id=72      x=215  y=28   width=14   height=19   xoffset=0    yoffset=2    xadvance=14   page=0    chnl=0 
char id=73      x=229  y=28   width=12   height=19   xoffset=1    yoffset=2    xadvance=14   page=0    chnl=0 
char id=74      x=241  y=28   width=12   height=19   xoffset=1    yoffset=2    xadvance=14   page=0    chnl=0 
char id=75      x=0    y=48   width=14   height=19   xoffset=1    yoffset=2    xadvance=14   page=0    chnl=0 
char id=76      x=14   y=48   width=12   height=19   xoffset=2    yoffset=2    xadvance=14   page=0    chnl=0 
char id=77      x=26   y=48   width=15   height=19   xoffset=0    yoffset=2    xadvance=14   page=0    chnl=0 
char id=78      x=41   y=48   width=14   height=19   xoffset=1    yoffset=2    xadvance=14   page=0    chnl=0 
char id=79      x=55   y=48   width=15   height=19   xoffset=0    yoffset=2    xadvance=14   page=0    chnl=0 
char id=80      x=70   y=48   width=13   height=19   xoffset=1    yoffset=2    xadvance=14   page=0    chnl=0 
char id=81      x=109  y=0    width=16   height=23   xoffset=0    yoffset=2    xadvance=14   page=0    chnl=0 
char id=82      x=83   y=48   width=14   height=19   xoffset=1    yoffset=2    xadvance=14   page=0    chnl=0 
char id=83      x=97   y=48   width=14   height=19   xoffset=0    yoffset=2    xadvance=14   page=0    chnl=0 
char id=84      x=111  y=48   width=14   height=19   xoffset=0    yoffset=2    xadvance=14   page=0    chnl=0 
char id=85      x=125  y=48   width=14   height=19   xoffset=0    yoffset=2    xadvance=14   page=0    chnl=0 
char id=86      x=139  y=48   width=17   height=19   xoffset=-1   yoffset=2    xadvance=14   page=0    chnl=0 
char id=87      x=156  y=48   width=16   height=19   xoffset=-1   yoffset=2    xadvance=14   page=0    chnl=0 
char id=88      x=172  y=48   width=16   height=19   xoffset=-1   yoffset=2    xadvance=14   page=0    chnl=0 
char id=89      x=188  y=48   width=17   height=19   xoffset=-1   yoffset=2    xadvance=14   page=0    chnl=0 
char id=90      x=205  y=48   width=13   height=19   xoffset=0    yoffset=2    xadvance=14   page=0    chnl=0 
char id=91      x=36   y=0    width=9    height=25   xoffset=3    yoffset=1    xadvance=14   page=0    chnl=0 
char id=92      x=139  y=0    width=13   height=23   xoffset=1    yoffset=1    xadvance=14   page=0    chnl=0 
char id=93      x=45   y=0    width=9    height=25   xoffset=3    yoffset=1    xadvance=14   page=0    chnl=0 
char id=94      x=113  y=86   width=14   height=10   xoffset=0    yoffset=2    xadvance=14   page=0    chnl=0 
char id=95      x=192  y=86   width=16   height=4    xoffset=-1   yoffset=22   xadvance=14   page=0    chnl=0 
char id=96      x=137  y=86   width=11   height=8    xoffset=-1   yoffset=1    xadvance=14   page=0    chnl=0 
char id=97      x=150  y=67   width=13   height=15   xoffset=1    yoffset=6    xadvance=14   page=0    chnl=0 
char id=98      x=165  y=0    width=13   height=20   xoffset=1    yoffset=1    xadvance=14   page=0    chnl=0 
char id=99      x=163  y=67   width=12   height=15   xoffset=1    yoffset=6    xadvance=14   page=0    chnl=0 
char id=100     x=178  y=0    width=13   height=20   xoffset=0    yoffset=1    xadvance=14   page=0    chnl=0 
char id=101     x=175  y=67   width=14   height=15   xoffset=0    yoffset=6    xadvance=14   page=0    chnl=0 
char id=102     x=191  y=0    width=16   height=20   xoffset=-1   yoffset=1    xadvance=14   page=0    chnl=0 
char id=103     x=207  y=0    width=14   height=20   xoffset=0    yoffset=6    xadvance=14   page=0    chnl=0 
char id=104     x=221  y=0    width=13   height=20   xoffset=1    yoffset=1    xadvance=14   page=0    chnl=0 
char id=105     x=234  y=0    width=12   height=20   xoffset=1    yoffset=1    xadvance=14   page=0    chnl=0 
char id=106     x=25   y=0    width=11   height=25   xoffset=1    yoffset=1    xadvance=14   page=0    chnl=0 
char id=107     x=0    y=28   width=14   height=20   xoffset=1    yoffset=1    xadvance=14   page=0    chnl=0 
char id=108     x=14   y=28   width=12   height=20   xoffset=1    yoffset=1    xadvance=14   page=0    chnl=0 
char id=109     x=189  y=67   width=15   height=15   xoffset=0    yoffset=6    xadvance=14   page=0    chnl=0 
char id=110     x=204  y=67   width=13   height=15   xoffset=1    yoffset=6    xadvance=14   page=0    chnl=0 
char id=111     x=217  y=67   width=14   height=15   xoffset=0    yoffset=6    xadvance=14   page=0    chnl=0 
char id=112     x=26   y=28   width=13   height=20   xoffset=1    yoffset=6    xadvance=14   page=0    chnl=0 
char id=113     x=152  y=0    width=13   height=21   xoffset=0    yoffset=5    xadvance=14   page=0    chnl=0 
char id=114     x=231  y=67   width=13   height=15   xoffset=2    yoffset=6    xadvance=14   page=0    chnl=0 
char id=115     x=0    y=86   width=12   height=15   xoffset=1    yoffset=6    xadvance=14   page=0    chnl=0 
char id=116     x=39   y=28   width=14   height=20   xoffset=0    yoffset=1    xadvance=14   page=0    chnl=0 
char id=117     x=12   y=86   width=13   height=15   xoffset=1    yoffset=6    xadvance=14   page=0    chnl=0 
char id=118     x=25   y=86   width=16   height=15   xoffset=-1   yoffset=6    xadvance=14   page=0    chnl=0 
char id=119     x=41   y=86   width=16   height=15   xoffset=-1   yoffset=6    xadvance=14   page=0    chnl=0 
char id=120     x=57   y=86   width=16   height=15   xoffset=-1   yoffset=6    xadvance=14   page=0    chnl=0 
char id=121     x=53   y=28   width=15   height=20   xoffset=0    yoffset=6    xadvance=14   page=0    chnl=0 
char id=122     x=73   y=86   width=12   height=15   xoffset=1    yoffset=6    xadvance=14   page=0    chnl=0 
char id=123     x=54   y=0    width=12   height=25   xoffset=1    yoffset=1    xadvance=14   page=0    chnl=0 
char id=124     x=0    y=0    width=5    height=28   xoffset=5    yoffset=-2   xadvance=14   page=0    chnl=0 
char id=125     x=66   y=0    width=12   height=25   xoffset=1    yoffset=1    xadvance=14   page=0    chnl=0 
char id=126     x=161  y=86   width=15   height=7    xoffset=0    yoffset=10   xadvance=14   page=0    chnl=0 
kernings count=0
