info face="Consolas" size=12 bold=0 italic=0 charset="" unicode=0 stretchH=100 smooth=1 aa=1 padding=1,1,1,1 spacing=-2,-2
common lineHeight=15 base=10 scaleW=256 scaleH=256 pages=1 packed=0
page id=0 file="consolas12.png"
chars count=96
char id=10      x=0    y=0    width=0    height=0    xoffset=0    yoffset=0    xadvance=0    page=0    chnl=0 
char id=32      x=0    y=0    width=0    height=0    xoffset=-1   yoffset=8    xadvance=7    page=0    chnl=0 
char id=33      x=231  y=14   width=5    height=10   xoffset=1    yoffset=0    xadvance=7    page=0    chnl=0 
char id=34      x=183  y=24   width=6    height=5    xoffset=0    yoffset=0    xadvance=7    page=0    chnl=0 
char id=35      x=18   y=24   width=9    height=10   xoffset=-1   yoffset=0    xadvance=7    page=0    chnl=0 
char id=36      x=17   y=0    width=8    height=14   xoffset=-1   yoffset=-2   xadvance=7    page=0    chnl=0 
char id=37      x=8    y=24   width=10   height=10   xoffset=-1   yoffset=0    xadvance=7    page=0    chnl=0 
char id=38      x=27   y=24   width=10   height=10   xoffset=-1   yoffset=0    xadvance=7    page=0    chnl=0 
char id=39      x=189  y=24   width=4    height=5    xoffset=1    yoffset=0    xadvance=7    page=0    chnl=0 
char id=40      x=0    y=0    width=7    height=14   xoffset=0    yoffset=-1   xadvance=7    page=0    chnl=0 
char id=41      x=7    y=0    width=6    height=14   xoffset=0    yoffset=-1   xadvance=7    page=0    chnl=0 
char id=42      x=161  y=24   width=8    height=7    xoffset=-1   yoffset=0    xadvance=7    page=0    chnl=0 
char id=43      x=147  y=24   width=9    height=8    xoffset=-1   yoffset=2    xadvance=7    page=0    chnl=0 
char id=44      x=156  y=24   width=5    height=7    xoffset=0    yoffset=5    xadvance=7    page=0    chnl=0 
char id=45      x=215  y=24   width=7    height=3    xoffset=0    yoffset=4    xadvance=7    page=0    chnl=0 
char id=46      x=210  y=24   width=5    height=4    xoffset=1    yoffset=6    xadvance=7    page=0    chnl=0 
char id=47      x=69   y=0    width=8    height=12   xoffset=-1   yoffset=0    xadvance=7    page=0    chnl=0 
char id=48      x=222  y=14   width=9    height=10   xoffset=-1   yoffset=0    xadvance=7    page=0    chnl=0 
char id=49      x=151  y=14   width=8    height=10   xoffset=-1   yoffset=0    xadvance=7    page=0    chnl=0 
char id=50      x=159  y=14   width=8    height=10   xoffset=-1   yoffset=0    xadvance=7    page=0    chnl=0 
char id=51      x=167  y=14   width=7    height=10   xoffset=-1   yoffset=0    xadvance=7    page=0    chnl=0 
char id=52      x=174  y=14   width=9    height=10   xoffset=-1   yoffset=0    xadvance=7    page=0    chnl=0 
char id=53      x=183  y=14   width=7    height=10   xoffset=-1   yoffset=0    xadvance=7    page=0    chnl=0 
char id=54      x=190  y=14   width=8    height=10   xoffset=-1   yoffset=0    xadvance=7    page=0    chnl=0 
char id=55      x=198  y=14   width=8    height=10   xoffset=-1   yoffset=0    xadvance=7    page=0    chnl=0 
char id=56      x=206  y=14   width=8    height=10   xoffset=-1   yoffset=0    xadvance=7    page=0    chnl=0 
char id=57      x=214  y=14   width=8    height=10   xoffset=-1   yoffset=0    xadvance=7    page=0    chnl=0 
char id=58      x=142  y=24   width=5    height=8    xoffset=1    yoffset=2    xadvance=7    page=0    chnl=0 
char id=59      x=242  y=14   width=6    height=10   xoffset=0    yoffset=2    xadvance=7    page=0    chnl=0 
char id=60      x=0    y=24   width=8    height=10   xoffset=-1   yoffset=1    xadvance=7    page=0    chnl=0 
char id=61      x=193  y=24   width=8    height=5    xoffset=-1   yoffset=3    xadvance=7    page=0    chnl=0 
char id=62      x=248  y=14   width=7    height=10   xoffset=0    yoffset=1    xadvance=7    page=0    chnl=0 
char id=63      x=236  y=14   width=6    height=10   xoffset=0    yoffset=0    xadvance=7    page=0    chnl=0 
char id=64      x=77   y=0    width=10   height=12   xoffset=-1   yoffset=0    xadvance=7    page=0    chnl=0 
char id=65      x=103  y=0    width=9    height=10   xoffset=-1   yoffset=0    xadvance=7    page=0    chnl=0 
char id=66      x=112  y=0    width=8    height=10   xoffset=-1   yoffset=0    xadvance=7    page=0    chnl=0 
char id=67      x=120  y=0    width=9    height=10   xoffset=-1   yoffset=0    xadvance=7    page=0    chnl=0 
char id=68      x=129  y=0    width=8    height=10   xoffset=-1   yoffset=0    xadvance=7    page=0    chnl=0 
char id=69      x=137  y=0    width=8    height=10   xoffset=-1   yoffset=0    xadvance=7    page=0    chnl=0 
char id=70      x=145  y=0    width=8    height=10   xoffset=-1   yoffset=0    xadvance=7    page=0    chnl=0 
char id=71      x=153  y=0    width=9    height=10   xoffset=-1   yoffset=0    xadvance=7    page=0    chnl=0 
char id=72      x=162  y=0    width=8    height=10   xoffset=-1   yoffset=0    xadvance=7    page=0    chnl=0 
char id=73      x=170  y=0    width=7    height=10   xoffset=0    yoffset=0    xadvance=7    page=0    chnl=0 
char id=74      x=177  y=0    width=7    height=10   xoffset=-1   yoffset=0    xadvance=7    page=0    chnl=0 
char id=75      x=184  y=0    width=9    height=10   xoffset=-1   yoffset=0    xadvance=7    page=0    chnl=0 
char id=76      x=193  y=0    width=8    height=10   xoffset=-1   yoffset=0    xadvance=7    page=0    chnl=0 
char id=77      x=201  y=0    width=9    height=10   xoffset=-1   yoffset=0    xadvance=7    page=0    chnl=0 
char id=78      x=210  y=0    width=8    height=10   xoffset=-1   yoffset=0    xadvance=7    page=0    chnl=0 
char id=79      x=218  y=0    width=9    height=10   xoffset=-1   yoffset=0    xadvance=7    page=0    chnl=0 
char id=80      x=227  y=0    width=8    height=10   xoffset=-1   yoffset=0    xadvance=7    page=0    chnl=0 
char id=81      x=25   y=0    width=10   height=12   xoffset=-1   yoffset=0    xadvance=7    page=0    chnl=0 
char id=82      x=235  y=0    width=9    height=10   xoffset=-1   yoffset=0    xadvance=7    page=0    chnl=0 
char id=83      x=244  y=0    width=8    height=10   xoffset=-1   yoffset=0    xadvance=7    page=0    chnl=0 
char id=84      x=0    y=14   width=9    height=10   xoffset=-1   yoffset=0    xadvance=7    page=0    chnl=0 
char id=85      x=9    y=14   width=8    height=10   xoffset=-1   yoffset=0    xadvance=7    page=0    chnl=0 
char id=86      x=17   y=14   width=9    height=10   xoffset=-1   yoffset=0    xadvance=7    page=0    chnl=0 
char id=87      x=26   y=14   width=9    height=10   xoffset=-1   yoffset=0    xadvance=7    page=0    chnl=0 
char id=88      x=35   y=14   width=9    height=10   xoffset=-1   yoffset=0    xadvance=7    page=0    chnl=0 
char id=89      x=44   y=14   width=9    height=10   xoffset=-1   yoffset=0    xadvance=7    page=0    chnl=0 
char id=90      x=53   y=14   width=8    height=10   xoffset=0    yoffset=0    xadvance=7    page=0    chnl=0 
char id=91      x=43   y=0    width=6    height=12   xoffset=0    yoffset=0    xadvance=7    page=0    chnl=0 
char id=92      x=87   y=0    width=8    height=12   xoffset=-1   yoffset=0    xadvance=7    page=0    chnl=0 
char id=93      x=49   y=0    width=6    height=12   xoffset=0    yoffset=0    xadvance=7    page=0    chnl=0 
char id=94      x=175  y=24   width=8    height=6    xoffset=-1   yoffset=0    xadvance=7    page=0    chnl=0 
char id=95      x=222  y=24   width=9    height=3    xoffset=-1   yoffset=9    xadvance=7    page=0    chnl=0 
char id=96      x=169  y=24   width=6    height=6    xoffset=-1   yoffset=-1   xadvance=7    page=0    chnl=0 
char id=97      x=37   y=24   width=8    height=8    xoffset=-1   yoffset=2    xadvance=7    page=0    chnl=0 
char id=98      x=61   y=14   width=8    height=10   xoffset=-1   yoffset=0    xadvance=7    page=0    chnl=0 
char id=99      x=45   y=24   width=8    height=8    xoffset=-1   yoffset=2    xadvance=7    page=0    chnl=0 
char id=100     x=69   y=14   width=8    height=10   xoffset=-1   yoffset=0    xadvance=7    page=0    chnl=0 
char id=101     x=53   y=24   width=8    height=8    xoffset=-1   yoffset=2    xadvance=7    page=0    chnl=0 
char id=102     x=77   y=14   width=8    height=10   xoffset=-1   yoffset=0    xadvance=7    page=0    chnl=0 
char id=103     x=85   y=14   width=8    height=10   xoffset=0    yoffset=2    xadvance=7    page=0    chnl=0 
char id=104     x=93   y=14   width=8    height=10   xoffset=-1   yoffset=0    xadvance=7    page=0    chnl=0 
char id=105     x=101  y=14   width=8    height=10   xoffset=-1   yoffset=0    xadvance=7    page=0    chnl=0 
char id=106     x=35   y=0    width=8    height=12   xoffset=-1   yoffset=0    xadvance=7    page=0    chnl=0 
char id=107     x=109  y=14   width=9    height=10   xoffset=-1   yoffset=0    xadvance=7    page=0    chnl=0 
char id=108     x=118  y=14   width=8    height=10   xoffset=-1   yoffset=0    xadvance=7    page=0    chnl=0 
char id=109     x=61   y=24   width=8    height=8    xoffset=-1   yoffset=2    xadvance=7    page=0    chnl=0 
char id=110     x=69   y=24   width=8    height=8    xoffset=-1   yoffset=2    xadvance=7    page=0    chnl=0 
char id=111     x=77   y=24   width=8    height=8    xoffset=-1   yoffset=2    xadvance=7    page=0    chnl=0 
char id=112     x=126  y=14   width=8    height=10   xoffset=-1   yoffset=2    xadvance=7    page=0    chnl=0 
char id=113     x=95   y=0    width=8    height=11   xoffset=-1   yoffset=1    xadvance=7    page=0    chnl=0 
char id=114     x=85   y=24   width=8    height=8    xoffset=-1   yoffset=2    xadvance=7    page=0    chnl=0 
char id=115     x=93   y=24   width=7    height=8    xoffset=0    yoffset=2    xadvance=7    page=0    chnl=0 
char id=116     x=134  y=14   width=8    height=10   xoffset=-1   yoffset=0    xadvance=7    page=0    chnl=0 
char id=117     x=100  y=24   width=8    height=8    xoffset=-1   yoffset=2    xadvance=7    page=0    chnl=0 
char id=118     x=108  y=24   width=9    height=8    xoffset=-1   yoffset=2    xadvance=7    page=0    chnl=0 
char id=119     x=117  y=24   width=9    height=8    xoffset=-1   yoffset=2    xadvance=7    page=0    chnl=0 
char id=120     x=126  y=24   width=9    height=8    xoffset=-1   yoffset=2    xadvance=7    page=0    chnl=0 
char id=121     x=142  y=14   width=9    height=10   xoffset=-1   yoffset=2    xadvance=7    page=0    chnl=0 
char id=122     x=135  y=24   width=7    height=8    xoffset=0    yoffset=2    xadvance=7    page=0    chnl=0 
char id=123     x=55   y=0    width=7    height=12   xoffset=0    yoffset=0    xadvance=7    page=0    chnl=0 
char id=124     x=13   y=0    width=4    height=14   xoffset=1    yoffset=-2   xadvance=7    page=0    chnl=0 
char id=125     x=62   y=0    width=7    height=12   xoffset=0    yoffset=0    xadvance=7    page=0    chnl=0 
char id=126     x=201  y=24   width=9    height=5    xoffset=-1   yoffset=3    xadvance=7    page=0    chnl=0 
kernings count=0
